{
    "data":[
        [
            "General",
            "T34678",
            "Product_1",
            "1.00",
            87654903289,
            "12/24",
            4.50,
            50.30,
            "30x12x20",
            245
        ],
        [
            "General",
            "T34675",
            "Product_2",
            "2.00",
            87654904675,
            "12/24",
            4.80,
            50.00,
            "30x12x20",
            200
        ],
        [
            "General",
            "T34676",
            "Product_3",
            "2.00",
            87654904987,
            "12/24",
            4.50,
            40.60,
            "30x12x20",
            450
        ],
        [
            "General",
            "T34678",
            "Product_4",
            "5.00",
            87654904896,
            "12/24",
            3.80,
            40.00,
            "30x12x20",
            15
        ],
        [
            "General",
            "T34667",
            "Product_5",
            "1.00",
            87654902378,
            "12/24",
            4.90,
            55.00,
            "30x12x20",
            20
        ],
        [
            "General",
            "T34678",
            "Product_6",
            "1.00",
            87654903287,
            "12/24",
            4.50,
            50.30,
            "30x12x20",
            245
        ],
        [
            "General",
            "T34675",
            "Product_7",
            "2.00",
            87654904675,
            "12/24",
            4.80,
            50.00,
            "30x12x20",
            200
        ],
        [
            "General",
            "T34676",
            "Product_8",
            "2.00",
            87654904987,
            "12/24",
            4.50,
            40.60,
            "30x12x20",
            450
        ],
        [
            "General",
            "T34678",
            "Product_9",
            "5.00",
            87654904896,
            "12/24",
            3.80,
            40.00,
            "30x12x20",
            15
        ],
        [
            "General",
            "T34667",
            "Product_10",
            "1.00",
            87654902378,
            "12/24",
            4.90,
            55.00,
            "30x12x20",
            20
        ],
        [
            "General",
            "T34678",
            "Product_11",
            "1.00",
            87654903287,
            "12/24",
            4.50,
            50.30,
            "30x12x20",
            245
        ],
        [
            "General",
            "T34675",
            "Product_12",
            "2.00",
            87654904675,
            "12/24",
            4.80,
            50.00,
            "30x12x20",
            200
        ],
        [
            "General",
            "T34676",
            "Product_13",
            "2.00",
            87654904987,
            "12/24",
            4.50,
            40.60,
            "30x12x20",
            450
        ],
        [
            "General",
            "T34678",
            "Product_14",
            "5.00",
            87654904896,
            "12/24",
            3.80,
            40.00,
            "30x12x20",
            15
        ],
        [
            "General",
            "T34667",
            "Product_15",
            "1.00",
            87654902378,
            "12/24",
            4.90,
            55.00,
            "30x12x20",
            20
        ],
        [
            "General",
            "T34678",
            "Product_16",
            "1.00",
            87654903287,
            "12/24",
            4.50,
            50.30,
            "30x12x20",
            245
        ],
        [
            "General",
            "T34675",
            "Product_17",
            "2.00",
            87654904675,
            "12/24",
            4.80,
            50.00,
            "30x12x20",
            200
        ],
        [
            "General",
            "T34676",
            "Product_18",
            "2.00",
            87654904987,
            "12/24",
            4.50,
            40.60,
            "30x12x20",
            450
        ],
        [
            "General",
            "T34678",
            "Product_19",
            "5.00",
            87654904896,
            "12/24",
            3.80,
            40.00,
            "30x12x20",
            15
        ],
        [
            "General",
            "T34667",
            "Product_20",
            "1.00",
            87654902378,
            "12/24",
            4.90,
            55.00,
            "30x12x20",
            20
        ]
    ]
}